{
    "name": "Development",
    "references": [],
    "optionalUnityReferences": [],
    "includePlatforms": [
        "Android",
        "Editor",
        "iOS"
    ],
    "excludePlatforms": [],
    "allowUnsafeCode": false,
    "overrideReferences": false,
    "precompiledReferences": [],
    "autoReferenced": true,
    "defineConstraints": []
}